<svg width="54" height="64" viewBox="0 0 54 64" fill="none" xmlns="http://www.w3.org/2000/svg">
<path d="M39.8464 64H14.8464C10.8806 63.9654 7.09054 62.3593 4.3074 59.534C1.52426 56.7086 -0.0246589 52.8948 0.000383148 48.929V14.429C-0.0273383 10.6363 1.45021 6.98735 4.10898 4.28246C6.76776 1.57756 10.3907 0.037496 14.1834 0L30.9834 0C31.3703 0.00369713 31.74 0.160766 32.0113 0.436736C32.2826 0.712706 32.4333 1.08503 32.4304 1.472V11.772C32.4193 14.5781 33.5161 17.2752 35.4823 19.2773C37.4486 21.2793 40.1255 22.4245 42.9314 22.464C44.2744 22.464 45.4544 22.474 46.4954 22.483C47.3104 22.49 48.0244 22.496 48.6554 22.496C49.1024 22.496 49.6834 22.489 50.3104 22.482C51.0364 22.474 51.8564 22.464 52.5864 22.464C52.964 22.468 53.3247 22.6212 53.5896 22.8903C53.8546 23.1594 54.0023 23.5224 54.0004 23.9V49.632C54.0241 53.4129 52.5473 57.0488 49.8939 59.7423C47.2405 62.4358 43.6272 63.967 39.8464 64V64ZM18.6464 32.769C18.0144 32.769 17.4082 33.0201 16.9613 33.467C16.5144 33.9139 16.2634 34.52 16.2634 35.152C16.2634 35.784 16.5144 36.3901 16.9613 36.837C17.4082 37.2839 18.0144 37.535 18.6464 37.535H34.1864C34.8184 37.535 35.4245 37.2839 35.8714 36.837C36.3183 36.3901 36.5694 35.784 36.5694 35.152C36.5694 34.52 36.3183 33.9139 35.8714 33.467C35.4245 33.0201 34.8184 32.769 34.1864 32.769H18.6464Z" fill="url(#paint0_linear_277_276)"/>
<path d="M53.0005 15L40.0005 15C39.4701 15 38.9613 14.7893 38.5863 14.4142C38.2112 14.0391 38.0005 13.5304 38.0005 13V0L52.0005 0C52.2657 0 52.5201 0.105357 52.7076 0.292893C52.8951 0.48043 53.0005 0.734784 53.0005 1V15Z" fill="white"/>
<defs>
<linearGradient id="paint0_linear_277_276" x1="-8.09668" y1="12.7177" x2="34.2959" y2="57.0187" gradientUnits="userSpaceOnUse">
<stop stop-color="#EAC331"/>
<stop offset="0.675647" stop-color="#F3C93A" stop-opacity="0.61"/>
<stop offset="1" stop-color="#F9CE40"/>
</linearGradient>
</defs>
</svg>
