<svg width="53" height="54" viewBox="0 0 53 54" fill="none" xmlns="http://www.w3.org/2000/svg">
<path d="M51.4396 1.54047C50.7887 0.874895 49.9687 0.399347 49.0678 0.164962C48.1669 -0.0694234 47.2191 -0.0537764 46.3264 0.21022L3.69314 12.5839C2.76456 12.838 1.92721 13.3505 1.27848 14.0618C0.629746 14.7731 0.196297 15.654 0.0285483 16.602C-0.0776176 17.6828 0.113561 18.7721 0.581431 19.7522C1.0493 20.7323 1.77608 21.5659 2.68324 22.163L16.0105 30.3373C16.6743 30.7457 17.4567 30.9177 18.2306 30.8255C19.0044 30.7332 19.7244 30.3821 20.2736 29.8291L35.542 14.4994C35.7234 14.3095 35.9413 14.1584 36.1827 14.0552C36.4241 13.952 36.6839 13.8987 36.9464 13.8987C37.2089 13.8987 37.4687 13.952 37.7101 14.0552C37.9514 14.1584 38.1694 14.3095 38.3507 14.4994C38.7199 14.8759 38.9267 15.3822 38.9267 15.9095C38.9267 16.4368 38.7199 16.9431 38.3507 17.3196L23.0591 32.6502C22.5077 33.204 22.1578 33.9266 22.0651 34.7026C21.9723 35.4786 22.1422 36.2633 22.5475 36.9315L30.6929 50.3697C31.1425 51.1355 31.7854 51.7697 32.5573 52.2087C33.3292 52.6477 34.2029 52.8762 35.0909 52.8712C35.312 52.8762 35.5333 52.8665 35.7531 52.8422C36.7529 52.7191 37.6947 52.306 38.4623 51.6537C39.2299 51.0014 39.7897 50.1386 40.0725 49.1719L52.7119 6.67602C52.9798 5.78517 53.0032 4.83864 52.7795 3.93566C52.5558 3.03268 52.0933 2.20652 51.4404 1.54378" fill="url(#paint0_linear_277_285)"/>
<path d="M13.2789 52.0724C12.9067 51.6973 12.6978 51.1903 12.6978 50.6619C12.6978 50.1334 12.9067 49.6264 13.2789 49.2513L16.8963 45.6157C17.0809 45.4305 17.3002 45.2836 17.5417 45.1833C17.7832 45.083 18.0421 45.0314 18.3036 45.0314C18.565 45.0314 18.8239 45.083 19.0654 45.1833C19.3069 45.2836 19.5262 45.4305 19.7108 45.6157C20.082 45.9918 20.2901 46.499 20.2901 47.0275C20.2901 47.556 20.082 48.0632 19.7108 48.4393L16.0909 52.0724C15.9069 52.2577 15.688 52.4047 15.4469 52.505C15.2058 52.6054 14.9473 52.657 14.6862 52.657C14.425 52.657 14.1665 52.6054 13.9254 52.505C13.6843 52.4047 13.4654 52.2577 13.2814 52.0724H13.2789ZM11.202 41.9925C10.8298 41.6174 10.6209 41.1104 10.6209 40.582C10.6209 40.0535 10.8298 39.5465 11.202 39.1714L14.8194 35.5358C15.004 35.3506 15.2233 35.2037 15.4648 35.1034C15.7063 35.0031 15.9652 34.9515 16.2267 34.9515C16.4881 34.9515 16.747 35.0031 16.9885 35.1034C17.23 35.2037 17.4493 35.3506 17.6339 35.5358C18.0051 35.9119 18.2132 36.4191 18.2132 36.9476C18.2132 37.4761 18.0051 37.9833 17.6339 38.3594L14.014 41.9925C13.83 42.1778 13.6111 42.3248 13.37 42.4251C13.1289 42.5255 12.8704 42.5771 12.6093 42.5771C12.3481 42.5771 12.0896 42.5255 11.8485 42.4251C11.6074 42.3248 11.3885 42.1778 11.2045 41.9925H11.202ZM1.2347 38.8171C0.862455 38.4421 0.653564 37.935 0.653564 37.4066C0.653564 36.8782 0.862455 36.3711 1.2347 35.9961L4.85376 32.3604C5.03833 32.1752 5.25765 32.0283 5.49913 31.928C5.74062 31.8277 5.99952 31.7761 6.26099 31.7761C6.52247 31.7761 6.78137 31.8277 7.02285 31.928C7.26434 32.0283 7.48365 32.1752 7.66822 32.3604C8.03943 32.7366 8.24756 33.2438 8.24756 33.7722C8.24756 34.3007 8.03943 34.8079 7.66822 35.184L4.04916 38.8171C3.86504 39.0032 3.64587 39.1508 3.40433 39.2516C3.16278 39.3524 2.90365 39.4042 2.64193 39.4042C2.38021 39.4042 2.12108 39.3524 1.87954 39.2516C1.63799 39.1508 1.41882 39.0032 1.2347 38.8171V38.8171Z" fill="white" stroke="white"/>
<defs>
<linearGradient id="paint0_linear_277_285" x1="-7.93639" y1="10.5065" x2="26.3242" y2="52.9867" gradientUnits="userSpaceOnUse">
<stop stop-color="#EAC331"/>
<stop offset="0.675647" stop-color="#F3C93A" stop-opacity="0.61"/>
<stop offset="1" stop-color="#F9CE40"/>
</linearGradient>
</defs>
</svg>
