<svg width="74" height="58" viewBox="0 0 74 58" fill="none" xmlns="http://www.w3.org/2000/svg">
<path d="M61.17 57.092H20.39C18.7834 57.092 17.1926 56.7756 15.7083 56.1607C14.224 55.5459 12.8753 54.6448 11.7393 53.5087C9.44494 51.2144 8.15601 48.1027 8.15601 44.858V12.234C8.15601 8.98934 9.44494 5.87758 11.7393 3.58326C14.0336 1.28894 17.1453 0 20.39 0H61.17C62.7766 0 64.3675 0.316442 65.8518 0.931258C67.3361 1.54607 68.6847 2.44722 69.8207 3.58326C70.9568 4.71929 71.8579 6.06795 72.4727 7.55225C73.0876 9.03655 73.404 10.6274 73.404 12.234V44.858C73.404 48.1027 72.1151 51.2144 69.8207 53.5087C67.5264 55.8031 64.4147 57.092 61.17 57.092Z" fill="url(#paint0_linear_277_290)"/>
<path d="M24.468 40.78H8.156C7.08494 40.78 6.02437 40.569 5.03483 40.1592C4.0453 39.7493 3.14619 39.1485 2.38884 38.3912C1.63148 37.6338 1.03072 36.7347 0.620839 35.7452C0.210961 34.7556 0 33.6951 0 32.624V24.468C0 22.3049 0.85929 20.2304 2.38884 18.7008C3.91838 17.1713 5.99289 16.312 8.156 16.312H24.468C26.6311 16.312 28.7056 17.1713 30.2352 18.7008C31.7647 20.2304 32.624 22.3049 32.624 24.468V32.624C32.624 33.6951 32.413 34.7556 32.0032 35.7452C31.5933 36.7347 30.9925 37.6338 30.2352 38.3912C29.4778 39.1485 28.5787 39.7493 27.5892 40.1592C26.5996 40.569 25.5391 40.78 24.468 40.78Z" fill="white"/>
<defs>
<linearGradient id="paint0_linear_277_290" x1="-1.62706" y1="11.345" x2="34.0511" y2="61.8459" gradientUnits="userSpaceOnUse">
<stop stop-color="#EAC331"/>
<stop offset="0.675647" stop-color="#F3C93A" stop-opacity="0.61"/>
<stop offset="1" stop-color="#F9CE40"/>
</linearGradient>
</defs>
</svg>
